[{
    "name": "Lemure",
    "relativeURL": "Monsters.aspx?ID=108",
    "familyName": "Devil",
    "level": "0",
    "alignment": "Lawful Evil",
    "creatureType": "Fiend",
    "size": "Medium",
    "nethysUrl": "https://2e.aonprd.com/Monsters.aspx?ID=108",
    "recallKnowledgeText": "Recall Knowledge (Religion): DC 14",
    "flavorText": "These shapeless masses of quivering flesh are the least of devilkind. Pathetic creatures from Hell’s first layer, lemures roam alongside damned and suffering souls. Pit fiends can combine the essence of a mob of lemures to concentrate their collective wickedness with a single form, granting it an infernal sentience and transforming it into a more powerful devil (see the pit fiend’s Devil Shaping ability).<br><br>",
    "rarity": "common",
    "traits": [
      {
        "traitName": "Devil",
        "traitSummary": "A family of fiends from Hell, most devils are irredeemably lawful evil. They typically have greater darkvision, immunity to fire, and telepathy.",
        "traitURL": "https://2e.aonprd.com/Traits.aspx?ID=44"
      },
      {
        "traitName": "Fiend",
        "traitSummary": "Creatures that hail from or have a strong connection to the evil-aligned planes are called fiends. Fiends can survive the basic environmental effects of planes in the Outer Sphere.",
        "traitURL": "https://2e.aonprd.com/Traits.aspx?ID=70"
      },
      {
        "traitName": "Mindless",
        "traitSummary": "A mindless creature has either programmed or rudimentary mental attributes. Most, if not all, of their mental ability modifiers are –5. They are immune to all mental effects.",
        "traitURL": "https://2e.aonprd.com/Traits.aspx?ID=108"
      }
    ],
    "sourceDoc": "Bestiary pg. 86",
    "perceptionMod": "+0",
    "perceptionText": "greater darkvision",
    "skills": [
      {
        "name": "Athletics",
        "mod": "+5"
      }
    ],
    "attributes": {
      "str": "+2",
      "dex": "+0",
      "con": "+3",
      "int": "-5",
      "wis": "+0",
      "cha": "-3"
    },
    "AC": "13",
    "saves": [
      {
        "name": "Fort",
        "mod": "+10"
      },
      {
        "name": "Ref",
        "mod": "+5"
      },
      {
        "name": "Will",
        "mod": "+3"
      }
    ],
    "weaknesses": "good 3",
    "resistances": "physical 3 (except silver), poison 5",
    "immunities": "fire, mental",
    "HP": "20",
    "speed": "20 feet",
    "attackActions": [
      {
        "name": "claw",
        "actionCost": 1,
        "modifier": "+7",
        "traits": [
          "evil",
          "magical"
        ],
        "damageRolls": [
          "1d4+2 slashing",
          "1 evil"
        ]
      }
    ],
    "offensiveAbilities": [
      {
        "name": "Subservience",
        "actionCost": "passive",
        "actionText": "Lemures have little drive of their own, but other devils can take command of them. A non-lemure devil can issue a command to all lemures within 60 feet of it with a single action, which has the <a style=\"text-decoration:underline\" href=\"https://2e.aonprd.com/Traits.aspx?ID=16\">auditory</a> and <a style=\"text-decoration:underline\" href=\"Traits.aspx?ID=32\">concentrate</a> traits. The devil picks one of the following orders lemures can understand, and the lemures follow that order. The command and its effects end once the commander is out of the lemure’s sight, a new command is issued by the same or another devil, or the lemure dies. <ul><li><b>Kill </b>The lemure attacks one target the commander singles out and gains a +1 circumstance bonus to attack rolls against the target.</li><li><b>Defend </b>The lemure circles the commander and attacks any creature that comes near. It gains a +1 circumstance bonus to AC and saves.</li><li><b>Fetch </b>The lemure gains a +10&#x2013;foot circumstance bonus to its Speed and attempts to get an object or person the commander singles out. It attacks anyone and anything that gets in the way.</li><li><b>Work </b>The lemure performs drudge work dictated by the commander.</li></ul>"
      }
    ],
    "imageFilename": "Devil_Lemure.png"
  }
]