[
  {
    "name": "Bogey",
    "level": "3",
    "traits": [
      {
        "traitName": "FEY"
      }
    ],
    "rarity": "uncommon",
    "size": "Small",
    "alignment": "Neutral Evil",
    "sourceDoc": "Pathfinder #152: Legacy of the Lost God pg. 78",
    "perceptionMod": "+9",
    "perceptionText": "low-light vision",
    "languagesList": "Aklo, Sylvan",
    "skills": [
      {
        "name": "Acrobatics",
        "mod": "+10"
      },
      {
        "name": "Deception",
        "mod": "+10"
      },
      {
        "name": "Intimidation",
        "mod": "+8"
      },
      {
        "name": "Stealth",
        "mod": "+10"
      }
    ],
    "attributes": {
      "str": "+2",
      "dex": "+3",
      "con": "+2",
      "int": "-2",
      "wis": "+1",
      "cha": "+3"
    },
    "interactionAbilities": [],
    "AC": "20",
    "saves": [
      {
        "name": "Fort",
        "mod": "+7"
      },
      {
        "name": "Ref",
        "mod": "+12"
      },
      {
        "name": "Will",
        "mod": "+8"
      }
    ],
    "immunities": "fear",
    "weaknesses": "cold iron 4",
    "HP": "35",
    "speed": "30 feet",
    "attackActions": [
      {
        "name": "claw",
        "modifier": "+10",
        "damageRolls": [
          "1d8+3 slashing"
        ],
        "actionCost": "1"
      }
    ],
    "spellAbilities": [
      {
        "name": "Occult Innate Spells",
        "isFocus": false,
        "isRituals": false,
        "isSpontaneous": false,
        "numFocusPoints": 0,
        "tradition": "occult",
        "DC": "18",
        "spellCastType": "innate",
        "spellLevels": [
          {
            "spellLvl": 1,
            "level": "1st",
            "numUses": 2,
            "spells": [
              {
                "spellName": "fear",
                "detailText": "(x2)"
              }
            ]
          },
          {
            "spellLvl": 0,
            "level": "Cantrips (1st)",
            "numUses": 2,
            "spells": [
              {
                "spellName": "ghost sound"
              },
              {
                "spellName": "message"
              }
            ]
          }
        ]
      }
    ],
    "offensiveAbilities": [
      {
        "name": "Devour Soul",
        "traits": [
          "necromancy",
          "occult"
        ],
        "actionCost": 3,
        "actionText": "<b>Requirements</b> The bogey has killed a creature within the last round and is adjacent to the creature; <br>\n<b>Effect</b> The bogey consumes the creature's soul. The soul is utterly destroyed—nothing short of wish or a similar effect can restore it to life, and only after the bogey has been slain. The bogey regains Hit Points equal to double the level of the consumed creature. After devouring three souls within a year, the bogey transforms into a bugaboo."
      },
      {
        "name": "Surprise Attack",
        "actionCost": "passive",
        "actionText": "On the first round of combat, creatures that haven't acted yet are flat-footed to the bogey."
      }
    ]
  },
  {
    "name": "Bogeyman",
    "level": "10",
    "traits": [
      {
        "traitName": "FEY"
      }
    ],
    "rarity": "uncommon",
    "size": "Medium",
    "alignment": "Neutral Evil",
    "sourceDoc": "Pathfinder #152: Legacy of the Lost God pg. 79",
    "perceptionMod": "+19",
    "perceptionText": "low-light vision",
    "languagesList": "Aklo, Common, Sylvan; tongues",
    "skills": [
      {
        "name": "Acrobatics",
        "mod": "+23"
      },
      {
        "name": "Athletics",
        "mod": "+19"
      },
      {
        "name": "Deception",
        "mod": "+22"
      },
      {
        "name": "Intimidation",
        "mod": "+22"
      },
      {
        "name": "Society",
        "mod": "+16"
      },
      {
        "name": "Stealth",
        "mod": "+23"
      },
      {
        "name": "Thievery",
        "mod": "+21"
      }
    ],
    "attributes": {
      "str": "+5",
      "dex": "+7",
      "con": "+4",
      "int": "+0",
      "wis": "+3",
      "cha": "+6"
    },
    "interactionAbilities": [],
    "AC": "30",
    "saves": [
      {
        "name": "Fort",
        "mod": "+16"
      },
      {
        "name": "Ref",
        "mod": "+23"
      },
      {
        "name": "Will",
        "mod": "+19"
      }
    ],
    "immunities": "fear",
    "weaknesses": "cold iron 10",
    "HP": "175",
    "HPDetails": "(fast healing 10)",
    "defensiveAbilities": [
      {
        "name": "Deepest Fear",
        "traits": [
          "aura",
          "emotion",
          "fear",
          "illusion",
          "mental",
          "visual"
        ],
        "actionCost": "passive",
        "actionText": "60 feet. A bogeyman's aura of terror manifests as a shifting haze of images that reflect the viewers' deepest fears. Whenever a creature ends its turn within the aura, it must succeed at a DC 28 Will save or become frightened 1. A creature's frightened condition (including from striking fear) does not reduce as long as the creature remains in the aura. If the creature succeeds at its saving throw, it becomes temporarily immune to the aura for 24 hours."
      }
    ],
    "speed": "30 feet",
    "otherSpeeds": {
      "mobility": ""
    },
    "attackActions": [
      {
        "name": "claw",
        "modifier": "+21",
        "damageRolls": [
          "2d12+9 slashing"
        ],
        "attackEffects": [
          "striking fear"
        ],
        "actionCost": "1"
      }
    ],
    "spellAbilities": [
      {
        "name": "Occult Innate Spells",
        "isFocus": false,
        "isRituals": false,
        "isSpontaneous": false,
        "numFocusPoints": 0,
        "tradition": "occult",
        "DC": "27",
        "spellCastType": "innate",
        "spellLevels": [
          {
            "spellLvl": 4,
            "level": "4th",
            "numUses": 4,
            "spells": [
              {
                "spellName": "gaseous form"
              },
              {
                "spellName": "invisibility"
              },
              {
                "spellName": "nightmare"
              },
              {
                "spellName": "phantasmal killer"
              }
            ]
          },
          {
            "spellLvl": 3,
            "level": "3rd",
            "numUses": 2,
            "spells": [
              {
                "spellName": "fear"
              },
              {
                "spellName": "mind reading"
              }
            ]
          },
          {
            "spellLvl": 2,
            "level": "2nd",
            "numUses": 1,
            "spells": [
              {
                "spellName": "knock",
                "detailText": "(at will)"
              }
            ]
          },
          {
            "spellLvl": 0,
            "level": "Cantrips (4th)",
            "numUses": 2,
            "spells": [
              {
                "spellName": "ghost sound"
              },
              {
                "spellName": "message"
              }
            ]
          },
          {
            "spellLvl": 4,
            "level": "Constant (4th)",
            "numUses": 1,
            "spells": [
              {
                "spellName": "tongues"
              }
            ]
          }
        ]
      }
    ],
    "offensiveAbilities": [
      {
        "name": "Devour Soul",
        "traits": [
          "necromancy",
          "occult"
        ],
        "actionCost": 3,
        "actionText": "<b>Requirements</b> The bogeyman has killed a creature within the last round and is adjacent to the creature; <br>\n<b>Effect</b> The bogeyman consumes the creature's soul. The soul is utterly destroyed—nothing short of wish or a similar effect can restore it to life, and only after the bogeyman has been slain. The bogeyman regains Hit Points equal to double the level of the consumed creature. Each time the bogeyman consumes 10 souls, it increases its level by 1, and its statistics improve accordingly."
      },
      {
        "name": "Mobility",
        "actionCost": "reaction",
        "actionText": "When the bogeyman uses a Stride action to move half their Speed or less, that movement does not trigger."
      },
      {
        "name": "Sneak Attack",
        "actionCost": "passive",
        "actionText": "The bogeyman deals 1d6 extra precision damage to flat-footed creatures."
      },
      {
        "name": "Striking Fear",
        "traits": [
          "emotion",
          "fear",
          "mental"
        ],
        "actionCost": "passive",
        "actionText": "If a bogeyman scores a critical hit with a claw Strike, the target must attempt a DC 29 Will save.<br><b>Critical Success</b> The target is unaffected.<br><b>Success</b> The target is frightened 1.<br><b>Failure</b> The target is frightened 2.<br><b>Critical Failure</b> The target is frightened 3 and fleeing for 1 round."
      },
      {
        "name": "Surprise Attack",
        "actionCost": "passive",
        "actionText": "On the first round of combat, creatures that haven't acted yet are flat-footed to the bogeyman."
      }
    ]
  },
  {
    "name": "Bugaboo",
    "level": "6",
    "traits": [
      {
        "traitName": "FEY"
      }
    ],
    "rarity": "uncommon",
    "size": "Medium",
    "alignment": "Neutral Evil",
    "sourceDoc": "Pathfinder #152: Legacy of the Lost God pg. 78",
    "perceptionMod": "+14",
    "perceptionText": "low-light vision",
    "languagesList": "Aklo, Common, Sylvan",
    "skills": [
      {
        "name": "Acrobatics",
        "mod": "+15"
      },
      {
        "name": "Deception",
        "mod": "+14"
      },
      {
        "name": "Intimidation",
        "mod": "+14"
      },
      {
        "name": "Stealth",
        "mod": "+15"
      },
      {
        "name": "Thievery",
        "mod": "+13"
      }
    ],
    "attributes": {
      "str": "+4",
      "dex": "+5",
      "con": "+3",
      "int": "-1",
      "wis": "+2",
      "cha": "+4"
    },
    "interactionAbilities": [],
    "AC": "24",
    "saves": [
      {
        "name": "Fort",
        "mod": "+11"
      },
      {
        "name": "Ref",
        "mod": "+17"
      },
      {
        "name": "Will",
        "mod": "+14"
      }
    ],
    "immunities": "fear",
    "weaknesses": "cold iron 6",
    "HP": "95",
    "speed": "30 feet",
    "otherSpeeds": {
      "mobility": ""
    },
    "attackActions": [
      {
        "name": "claw",
        "modifier": "+15",
        "damageRolls": [
          "2d8+6 slashing"
        ],
        "attackEffects": [
          "striking fear"
        ],
        "actionCost": "1"
      }
    ],
    "spellAbilities": [
      {
        "name": "Occult Innate Spells",
        "isFocus": false,
        "isRituals": false,
        "isSpontaneous": false,
        "numFocusPoints": 0,
        "tradition": "occult",
        "DC": "22",
        "spellCastType": "innate",
        "spellLevels": [
          {
            "spellLvl": 3,
            "level": "3rd",
            "numUses": 2,
            "spells": [
              {
                "spellName": "fear"
              },
              {
                "spellName": "paralyze"
              }
            ]
          },
          {
            "spellLvl": 2,
            "level": "2nd",
            "numUses": 2,
            "spells": [
              {
                "spellName": "invisibility"
              },
              {
                "spellName": "knock"
              }
            ]
          },
          {
            "spellLvl": 0,
            "level": "Cantrips (3rd)",
            "numUses": 2,
            "spells": [
              {
                "spellName": "ghost sound"
              },
              {
                "spellName": "message"
              }
            ]
          }
        ]
      }
    ],
    "offensiveAbilities": [
      {
        "name": "Devour Soul",
        "traits": [
          "necromancy",
          "occult"
        ],
        "actionCost": 3,
        "actionText": "<b>Requirements</b> The bugaboo has killed a creature within the last round and is adjacent to the creature; <br>\n<b>Effect</b> The bugaboo consumes the creature's soul. The soul is utterly destroyed—nothing short of wish or a similar effect can restore it to life, and only after the bugaboo has been slain. The bugaboo regains Hit Points equal to double the level of the consumed creature. After devouring six souls within a year, a bugaboo transforms into a bogeyman."
      },
      {
        "name": "Mobility",
        "actionCost": "reaction",
        "actionText": "When the bugaboo uses a Stride action to move half their Speed or less, that movement does not trigger."
      },
      {
        "name": "Sneak Attack",
        "actionCost": "passive",
        "actionText": "The bugaboo deals 1d6 extra precision damage to flat-footed creatures."
      },
      {
        "name": "Striking Fear",
        "traits": [
          "emotion",
          "fear",
          "mental"
        ],
        "actionCost": "passive",
        "actionText": "If a bugaboo scores a critical hit with a claw Strike, the target must attempt a DC 24 Will save.<br>Critical Success</b> The target is unaffected.<br><b>Success</b> The target is frightened 1.<br><b>Failure</b> The target is frightened 2.<br><b>Critical Failure</b> The target is frightened 3 and fleeing for 1 round."
      },
      {
        "name": "Surprise Attack",
        "actionCost": "passive",
        "actionText": "On the first round of combat, creatures that haven't acted yet are flat-footed to the bugaboo."
      }
    ]
  },
  {
    "name": "Chimpanzee Visitant",
    "level": "3",
    "traits": [
      {
        "traitName": "ANIMAL"
      },
      {
        "traitName": "UNDEAD"
      }
    ],
    "size": "Small",
    "alignment": "Neutral Evil",
    "rarity": "common",
    "sourceDoc": "Pathfinder #152: Legacy of the Lost God pg. 83",
    "perceptionMod": "+9",
    "perceptionText": "darkvision, lifesense (imprecise) 60 feet",
    "skills": [
      {
        "name": "Acrobatics",
        "mod": "+11"
      },
      {
        "name": "Athletics",
        "mod": "+10"
      }
    ],
    "attributes": {
      "str": "+3",
      "dex": "+4",
      "con": "+3",
      "int": "-4",
      "wis": "+1",
      "cha": "-1"
    },
    "AC": "18",
    "saves": [
      {
        "name": "Fort",
        "mod": "+8"
      },
      {
        "name": "Ref",
        "mod": "+11"
      },
      {
        "name": "Will",
        "mod": "+10"
      }
    ],
    "immunities": "death effects, disease, paralyzed, poison, unconscious",
    "weaknesses": "positive 5, whip vulnerability",
    "HP": "55",
    "HPDetails": "(negative healing)",
    "defensiveAbilities": [
      {
        "name": "Vengeful Presence",
        "traits": [
          "aura",
          "emotion",
          "enchantment",
          "mental"
        ],
        "actionCost": "passive",
        "actionText": "20 feet. A creature that starts its turn within the visitant's aura must succeed at a DC 16 Will save or be overcome with a thirst for vengeance. For 1d4 rounds (1 minute on a critical failure), if the affected creature was attacked within the last round (whether or not the attack hit), the creature must use at least 1 action per round to Strike or use a hostile action toward its last attacker as long as the attacker is still alive. <br>\n<b>Failure</b> to do so deals the affected creature 1d6 mental damage, plus 1d6 for every 5 levels the visitant has."
      },
      {
        "name": "Whip Vulnerability",
        "actionCost": "passive",
        "actionText": "A chimpanzee visitant takes 5 additional damage from whips."
      }
    ],
    "speed": "25 feet",
    "attackActions": [
      {
        "name": "jaws",
        "modifier": "+12",
        "damageRolls": [
          "2d6+5 piercing"
        ],
        "attackEffects": [
          "rabies"
        ],
        "actionCost": "1"
      },
      {
        "name": "claw",
        "modifier": "+13",
        "damageRolls": [
          "2d4+3 slashing"
        ],
        "attackEffects": [
          "Grab"
        ],
        "actionCost": "1"
      }
    ],
    "offensiveAbilities": [
      {
        "name": "Mauler",
        "actionCost": "passive",
        "actionText": "The visitant gains a +2 circumstance bonus to damage rolls against a creature it has grabbed."
      },
      {
        "name": "Rabies",
        "traits": [
          "disease"
        ],
        "actionCost": "passive",
        "actionText": "Visitants can be carriers of diseases, even if they are immune to their effects. <br>\n<b>Saving Throw</b> DC 16 Fortitude. <br>\n<b>Stage 1</b> sickened 1 (1 day); <br>\n<b>Stage 2</b> sickened 2 (1 day); <br>\n<b>Stage 3</b> confusion (1 day); <br>\n<b>Stage 4</b> dead"
      }
    ]
  },
  {
    "name": "Iridescent Elephant",
    "level": "7",
    "traits": [
      {
        "traitName": "ANIMAL"
      }
    ],
    "rarity": "uncommon",
    "size": "Huge",
    "alignment": "Neutral",
    "sourceDoc": "Pathfinder #152: Legacy of the Lost God pg. 80",
    "perceptionMod": "+11",
    "perceptionText": "scent (imprecise) 30 feet",
    "skills": [
      {
        "name": "Athletics",
        "mod": "+15"
      },
      {
        "name": "Survival",
        "mod": "+13"
      }
    ],
    "attributes": {
      "str": "+7",
      "dex": "+0",
      "con": "+2",
      "int": "-4",
      "wis": "+2",
      "cha": "+0"
    },
    "interactionAbilities": [],
    "AC": "21",
    "saves": [
      {
        "name": "Fort",
        "mod": "+16"
      },
      {
        "name": "Ref",
        "mod": "+9"
      },
      {
        "name": "Will",
        "mod": "+14"
      }
    ],
    "HP": "110",
    "defensiveAbilities": [
      {
        "name": "Glowing Bones",
        "actionCost": 1,
        "traits": [
          "concentrate"
        ],
        "actionText": "An iridescent animal emits phosphorescent bright light in a 15-foot aura. The animal can suppress this display until the end of its next turn as a single action, which has the concentrate trait. The color of the light is determined by the iridescent animal's creator."
      }
    ],
    "speed": "40 feet",
    "attackActions": [
      {
        "name": "tusk",
        "modifier": "+14",
        "damageRolls": [
          "3d8+7 piercing"
        ],
        "actionCost": "1"
      },
      {
        "name": "trunk",
        "modifier": "+16",
        "damageRolls": [],
        "attackEffects": [
          "grabbing trunk"
        ],
        "actionCost": "1"
      },
      {
        "name": "foot",
        "modifier": "+14",
        "damageRolls": [
          "2d10+7 bludgeoning"
        ],
        "attackEffects": [
          "color splash"
        ],
        "actionCost": "1"
      }
    ],
    "offensiveAbilities": [
      {
        "name": "Color Splash",
        "traits": [
          "visual"
        ],
        "actionCost": "passive",
        "actionText": "When the iridescent elephant stomps its foot, a bright, disorienting burst of light pulses through its leg. Each creatures adjacent to the iridescent elephant when it makes a foot Strike (regardless of whether or not it hit) must succeed at a DC 24 Will save or be flat-footed until the beginning of the elephant's next turn."
      },
      {
        "name": "Grabbing Trunk",
        "actionCost": "passive",
        "actionText": "A Medium or smaller creature hit by the elephant's trunk is grabbed. If the elephant moves, it can bring the grabbed creature along with it."
      },
      {
        "name": "Trample",
        "actionCost": 3,
        "actionText": "Large or smaller, foot, DC 22"
      },
      {
        "name": "Trunk Beam",
        "traits": [
          "visual",
          "light"
        ],
        "actionCost": "passive",
        "actionText": "<b>Frequency</b> once per day; <br>\n<b>Effect</b> The iridescent elephant blasts a beam of light from its trunk in a 30-foot line. Each creature in the area must attempt a DC 22 Fortitude save.<br>Critical Success The creature is unaffected.<br>Success The creature is dazzled for 1 round.<br>Failure The creature is blinded for 1 minute.<br>Critical Failure The creature is blinded permanently."
      }
    ]
  },
  {
    "name": "Lion Visitant",
    "level": "5",
    "traits": [
      {
        "traitName": "ANIMAL"
      },
      {
        "traitName": "UNDEAD"
      }
    ],
    "size": "Large",
    "alignment": "Neutral Evil",
    "rarity": "common",
    "sourceDoc": "Pathfinder #152: Legacy of the Lost God pg. 83",
    "perceptionMod": "+13",
    "perceptionText": "darkvision, lifesense (imprecise) 60 feet",
    "skills": [
      {
        "name": "Acrobatics",
        "mod": "+13"
      },
      {
        "name": "Athletics",
        "mod": "+13"
      },
      {
        "name": "Stealth",
        "mod": "+13"
      }
    ],
    "attributes": {
      "str": "+6",
      "dex": "+4",
      "con": "+2",
      "int": "-4",
      "wis": "+2",
      "cha": "+0"
    },
    "interactionAbilities": [],
    "AC": "22",
    "saves": [
      {
        "name": "Fort",
        "mod": "+9"
      },
      {
        "name": "Ref",
        "mod": "+11"
      },
      {
        "name": "Will",
        "mod": "+15"
      }
    ],
    "immunities": "death effects, disease, paralyzed, poison, unconscious",
    "weaknesses": "positive 7, whip vulnerability",
    "HP": "95",
    "HPDetails": "(negative healing)",
    "defensiveAbilities": [
      {
        "name": "Whip Vulnerability",
        "actionCost": "passive",
        "actionText": "A lion visitant takes 7 additional damage from whips."
      }
    ],
    "speed": "30 feet",
    "attackActions": [
      {
        "name": "jaws",
        "modifier": "+15",
        "damageRolls": [
          "2d6+8 piercing"
        ],
        "attackEffects": [
          "Grab"
        ],
        "actionCost": "1"
      },
      {
        "name": "claw",
        "modifier": "+15",
        "damageRolls": [
          "2d4+8 slashing"
        ],
        "actionCost": "1"
      }
    ],
    "offensiveAbilities": [
      {
        "name": "Pack Attack",
        "actionCost": "passive",
        "actionText": "The visitant deals an extra 1d4 damage to any creature that's within reach of at least two of the visitant's allies."
      },
      {
        "name": "Pounce",
        "actionCost": 1,
        "actionText": "The visitant Strides and makes a Strike at the end of that movement. If the visitant began this action hidden, it remains hidden until after the ability's Strike."
      },
      {
        "name": "Roar",
        "actionCost": 1,
        "actionText": "The visitant lets out a loud and horrifying roar. Each creature within 100 feet must attempt at a Will save. No matter the result, affected creatures are then temporarily immune to the effect for 1 minute.<br>Critical Success The creature is unaffected.<br>Success The creature is frightened 1.<br>Failure The creature is frightened 2.<br>Critical Failure The creature is frightened 3."
      },
      {
        "name": "Sneak Attack",
        "actionCost": "passive",
        "actionText": "The visitant deals an extra 1d8 precision damage to flat-footed creatures."
      }
    ]
  },
  {
    "name": "Muse Phantom",
    "level": "5",
    "traits": [
      {
        "traitName": "INCORPOREAL"
      },
      {
        "traitName": "SPIRIT"
      },
      {
        "traitName": "UNDEAD"
      }
    ],
    "rarity": "uncommon",
    "size": "Medium",
    "alignment": "Chaotic Evil",
    "sourceDoc": "Pathfinder #152: Legacy of the Lost God pg. 81",
    "perceptionMod": "+10",
    "perceptionText": "darkvision",
    "languagesList": "Common, Necril",
    "skills": [
      {
        "name": "Deception",
        "mod": "+14"
      },
      {
        "name": "Diplomacy",
        "mod": "+14"
      },
      {
        "name": "Occultism",
        "mod": "+13"
      },
      {
        "name": "Performance",
        "mod": "+16"
      },
      {
        "name": "Lore",
        "mod": "+11"
      }
    ],
    "attributes": {
      "str": "-5",
      "dex": "+4",
      "con": "+2",
      "int": "+0",
      "wis": "+3",
      "cha": "+5"
    },
    "interactionAbilities": [
      {
        "name": "Thespian Aura",
        "traits": [
          "aura",
          "emotion",
          "mental",
          "occult"
        ],
        "actionCost": "passive",
        "actionText": "30 feet. The muse phantom inspires a supernatural emotional response—either comedy or drama. Each creature that begins its turn in the aura must attempt a DC 20 Will save; on a failure, the creature is affected as long as it remains within the aura. If the muse phantom is emitting a comedic aura, affected creatures become clumsy 1; if it is emitting a dramatic aura, affected creatures instead become stupefied 1.<br>The muse phantom can change its aura from comedic to dramatic or vice-versa, or cease or activate this aura, by spending a single action, which has the concentrate trait. A creature possessed by a muse phantom is immune to this aura."
      }
    ],
    "AC": "21",
    "saves": [
      {
        "name": "Fort",
        "mod": "+9"
      },
      {
        "name": "Ref",
        "mod": "+13"
      },
      {
        "name": "Will",
        "mod": "+14"
      }
    ],
    "immunities": "death effects, disease, paralyzed, poison, precision, unconscious",
    "resistances": "all damage 5 (except force, ghost touch, or positive; double resistance vs. non-magical)",
    "HP": "50",
    "HPDetails": "(negative healing)",
    "speed": "fly 25 feet",
    "attackActions": [
      {
        "name": "phantom hand",
        "modifier": "+13",
        "damageRolls": [
          "2d6+5 negative"
        ],
        "actionCost": "1"
      },
      {
        "name": "resonating note",
        "modifier": "+15",
        "damageRolls": [
          "2d4+5 sonic"
        ],
        "actionCost": "1"
      }
    ],
    "spellAbilities": [
      {
        "name": "Occult Spontaneous Spells",
        "isFocus": false,
        "isRituals": false,
        "isSpontaneous": true,
        "numFocusPoints": 0,
        "tradition": "occult",
        "DC": "22",
        "attackMod": "+14",
        "spellCastType": "spontaneous",
        "spellLevels": [
          {
            "spellLvl": 2,
            "level": "2nd",
            "numUses": 2,
            "spells": [
              {
                "spellName": "hideous laughter"
              },
              {
                "spellName": "invisibility",
                "detailText": "(at will; self only)"
              }
            ]
          },
          {
            "spellLvl": 1,
            "level": "1st",
            "numUses": 3,
            "spells": [
              {
                "spellName": "charm"
              },
              {
                "spellName": "fear"
              },
              {
                "spellName": "mindlink"
              }
            ]
          },
          {
            "spellLvl": 0,
            "level": "Cantrips (2nd)",
            "numUses": 2,
            "spells": [
              {
                "spellName": "ghost sound"
              },
              {
                "spellName": "telekinetic projectile"
              }
            ]
          }
        ]
      }
    ],
    "offensiveAbilities": [
      {
        "name": "Grand Finale",
        "traits": [
          "mental",
          "occult"
        ],
        "actionCost": 3,
        "actionText": "<b>Requirements</b> The muse phantom's thespian aura is active; <br>\n<b>Effect</b> The muse ceases its thespian aura and deals 4d8 mental damage to creatures in a 30-foot burst, including the creature it is possessing, if any (DC 22 basic Will save). Creatures that fail their Will saves are fascinated by the muse phantom for 1 minute. The muse phantom can't use  again for 1d4 rounds."
      },
      {
        "name": "Muse Possession",
        "actionCost": 2,
        "actionText": "The phantom muse attempts to possess an adjacent corporeal creature. This has the same effect as the possession spell (DC 20), except the duration is 1d4 hours, and since the phantom muse doesn't have a physical body, it is unaffected by that restriction of the spell. If the target is at least trained in Performance, the DC of this ability is 24."
      }
    ]
  },
  {
    "name": "Zuipnyrn",
    "level": "3",
    "traits": [
      {
        "traitName": "ABERRATION"
      }
    ],
    "rarity": "rare",
    "size": "Small",
    "alignment": "Neutral",
    "sourceDoc": "Pathfinder #152: Legacy of the Lost God pg. 85",
    "perceptionMod": "+9",
    "perceptionText": "greater darkvision",
    "languagesList": "Common; (can't speak any language)",
    "skills": [
      {
        "name": "Stealth",
        "mod": "+11"
      }
    ],
    "attributes": {
      "str": "+1",
      "dex": "+3",
      "con": "+3",
      "int": "-2",
      "wis": "+2",
      "cha": "+5"
    },
    "interactionAbilities": [],
    "AC": "20",
    "saves": [
      {
        "name": "Fort",
        "mod": "+10"
      },
      {
        "name": "Ref",
        "mod": "+10"
      },
      {
        "name": "Will",
        "mod": "+7"
      }
    ],
    "resistances": "bludgeoning 3",
    "HP": "35",
    "defensiveAbilities": [
      {
        "name": "Alluring Aspect",
        "traits": [
          "aura",
          "occult",
          "visual"
        ],
        "actionCost": 1,
        "actionText": "30 feet. When a creature ends its turn in the aura, it must attempt a DC 22 Will save. On a failure, it becomes fascinated with the zuipnyrn for 1 minute. Once the fascination ends, the creature is temporarily immune to this ability for 1 hour. The zuipnyrn can deactivate or activate this aura by using a single action, which has the concentrate trait."
      }
    ],
    "speed": "20 feet",
    "otherSpeeds": {
      "climb": "10 feet"
    },
    "attackActions": [
      {
        "name": "eye stalk",
        "modifier": "+8",
        "damageRolls": [
          "2d4+2 bludgeoning"
        ],
        "actionCost": "1"
      }
    ],
    "offensiveAbilities": [
      {
        "name": "Beguiling Gaze",
        "traits": [
          "occult",
          "visual"
        ],
        "actionCost": 3,
        "actionText": "The zuipnyrn attempts to charm a creature within 30 feet that is currently fascinated by the zuipnyrn. The target must attempt a DC 22 Will save. Whether it succeeds or fails the save, the target is temporarily immune for 1 hour.<br>Critical Success The creature is unaffected and is no longer fascinated.<br>Success The creature is unaffected.<br>Failure The creature is helpful toward the zuipnyrn for 1 hour.<br>Critical Failure The creature is helpful toward the zuipnyrn for 1 day and will actively attempt to defend the zuipnyrn and even risk its life for it."
      },
      {
        "name": "Blinding Flare",
        "traits": [
          "occult",
          "visual"
        ],
        "actionCost": 2,
        "actionText": "The zuipnyrn's eye produces a bright flash of light. Each creature in a 30-foot cone must attempt a DC 22 Fortitude save. The zuipnyrn can't use  again for 1 minute.<br>Critical Success The creature is unaffected.<br>Success The creature is dazzled for 1 round.<br>Failure The creature is blinded for 1 round and dazzled for 1 minute.<br>Critical Failure The creature is blinded for 1 minute."
      }
    ]
  }
]