[
    {
        "name": "Xulgath Skirmisher",
        "relativeURL": "_",
        "familyName": "Xulgath",
        "level": "6",
        "alignment": "Chaotic Evil",
        "creatureType": "Humanoid",
        "size": "Medium",
        "nethysUrl": "_",
        "recallKnowledgeText": "Recall Knowledge (humanoid) Society DC 24",
        "flavorText": "_",
        "rarity": "uncommon",
        "traits": [
            {
                "traitName": "Humanoid",
                "traitSummary": "Humanoid creatures reason and act much like humans. They typically stand upright and have two arms and two legs.",
                "traitURL": "https://2e.aonprd.com/Traits.aspx?ID=91"
            },
            {
                "traitName": "Xulgath",
                "traitSummary": "These subterranean reptilian creatures tend to have darkvision and smell awful.",
                "traitURL": "https://2e.aonprd.com/Traits.aspx?ID=244"
            }
        ],
        "sourceDoc": "Pathfinder #153: Life's Long Shadows pg. 27",
        "perceptionMod": "+15",
        "perceptionText": "darkvision",
        "languagesList": "draconic, undercommon",
        "skills": [
            {
                "name": "Acrobatics",
                "mod": "+16"
            },
            {
                "name": "Athletics",
                "mod": "+14"
            },
            {
                "name": "Stealth",
                "mod": "+16"
            },
            {
                "name": "Survival",
                "mod": "+15"
            }
        ],
        "attributes": {
            "str": "+4",
            "dex": "+4",
            "con": "+1",
            "int": "+0",
            "wis": "+3",
            "cha": "+0"
        },
        "items": [
            {
                "name": "javelin",
                "itemDetails": "(6)"
            },
            {
                "name": "scimitar"
            },
            {
                "name": "studded leather armor"
            }
        ],
        "AC": "24",
        "saves": [
            {
                "name": "Fort",
                "mod": "+13"
            },
            {
                "name": "Ref",
                "mod": "+16"
            },
            {
                "name": "Will",
                "mod": "+13"
            }
        ],
        "HP": "95",
        "defensiveAbilities": [
            {
                "name": "Powerful Stench",
                "actionCost": "passive",
                "actionText": "(<a style=\"text-decoration:underline\" href=\"https://2e.aonprd.com/Traits.aspx?ID=206\">aura</a>, <a style=\"text-decoration:underline\" href=\"https://2e.aonprd.com/Traits.aspx?ID=246\">olfactory</a>) 30 feet. A creature that enters the area must attempt a DC 23 Fortitude save. On a failure, the creature is <a style=\"text-decoration:underline\" href=\"https://2e.aonprd.com/Conditions.aspx?ID=34\">sickened</a> 2, and on a critical failure, the creature is also <a style=\"text-decoration:underline\" href=\"https://2e.aonprd.com/Conditions.aspx?ID=35\">slowed</a> 1 for as long as it is <a style=\"text-decoration:underline\" href=\"https://2e.aonprd.com/Conditions.aspx?ID=34\">sickened</a>. While within the <a style=\"text-decoration:underline\" href=\"https://2e.aonprd.com/Traits.aspx?ID=206\">aura</a>, the creature takes a –2 circumstance penalty to saves to recover from the <a style=\"text-decoration:underline\" href=\"https://2e.aonprd.com/Conditions.aspx?ID=34\">sickened</a> condition. A creature that succeeds at its save is temporarily immune to all xulgaths’ stenches for 1 minute."
            }
        ],
        "speed": "30 feet, light step",
        "attackActions": [
            {
                "name": "scimitar",
                "actionCost": 1,
                "modifier": "+16",
                "traits": [
                    "forceful",
                    "sweep"
                ],
                "damageRolls": [
                    "1d6+4 slashing"
                ]
            },
            {
                "name": "jaws",
                "actionCost": 1,
                "modifier": "+16",
                "damageRolls": [
                    "1d6+4 piercing"
                ]
            },
            {
                "name": "claw",
                "actionCost": 1,
                "modifier": "+16",
                "traits": [
                    "agile",
                    "finesse"
                ],
                "damageRolls": [
                    "1d4+4 slashing"
                ]
            },
            {
                "name": "javelin",
                "actionCost": 1,
                "modifier": "+16",
                "traits": [
                    "thrown 60 feet"
                ],
                "damageRolls": [
                    "1d6+4 piercing"
                ]
            }
        ],
        "offensiveAbilities": [
            {
                "name": "Light Step",
                "actionCost": "passive",
                "actionText": "When a skirmisher Strides or Steps, they ignore difficult terrain and treat greater difficult terrain as difficult terrain."
            },
            {
                "name": "Powerful Arm",
                "actionCost": "passive",
                "actionText": "The xulgath skirmisher doubles the range increment of its thrown weapons."
            },
            {
                "name": "Skirmishing Movement",
                "actionCost": 2,
                "actionText": "(<a style=\"text-decoration:underline\" href=\"https://2e.aonprd.com/Traits.aspx?ID=15\">attack</a>, <a style=\"text-decoration:underline\" href=\"https://2e.aonprd.com/Traits.aspx?ID=114\">move</a>) The xulgath skirmisher Strides or Steps, then Strikes. This Strike deals an additional 3d6 precision damage."
            }
        ]
    },
    {
        "name": "Xulgath Bomber",
        "relativeURL": "_",
        "familyName": "Xulgath",
        "level": "7",
        "alignment": "Chaotic Evil",
        "creatureType": "Humanoid",
        "size": "Medium",
        "nethysUrl": "_",
        "recallKnowledgeText": "Recall Knowledge (humanoid) Society DC 25",
        "flavorText": "_",
        "rarity": "uncommon",
        "traits": [
            {
                "traitName": "Humanoid",
                "traitSummary": "Humanoid creatures reason and act much like humans. They typically stand upright and have two arms and two legs.",
                "traitURL": "https://2e.aonprd.com/Traits.aspx?ID=91"
            },
            {
                "traitName": "Xulgath",
                "traitSummary": "These subterranean reptilian creatures tend to have darkvision and smell awful.",
                "traitURL": "https://2e.aonprd.com/Traits.aspx?ID=244"
            }
        ],
        "sourceDoc": "Pathfinder #153: Life's Long Shadows pg. 28",
        "perceptionMod": "+15",
        "perceptionText": "darkvision",
        "languagesList": "draconic, undercommon",
        "skills": [
            {
                "name": "Acrobatics",
                "mod": "+17"
            },
            {
                "name": "Athletics",
                "mod": "+14"
            },
            {
                "name": "Crafting",
                "mod": "+17"
            },
            {
                "name": "Stealth",
                "mod": "+15"
            },
            {
                "name": "Thievery",
                "mod": "+15"
            }
        ],
        "attributes": {
            "str": "+3",
            "dex": "+4",
            "con": "+1",
            "int": "+4",
            "wis": "+2",
            "cha": "+0"
        },
        "items": [
            {
                "name": "alchemist's tools"
            },
            {
                "name": "greatpick"
            },
            {
                "name": "studded leather armor"
            },
            {
                "name": "infused lesser acid flask",
                "itemDetails": "(2)"
            },
            {
                "name": "infused lesser alchemist's fire",
                "itemDetails": "(2)"
            },
            {
                "name": "infused concentrated xulgath bile",
                "itemDetails": "(2)"
            }
        ],
        "interactionAbilities": [
            {
                "name": "Infused Items",
                "actionCost": "passive",
                "actionText": "A xulgath bomber's items listed as infused last for 24 hours, or until the next time they make their daily preparations."
            }
        ],
        "AC": "25",
        "saves": [
            {
                "name": "Fort",
                "mod": "+12"
            },
            {
                "name": "Ref",
                "mod": "+17"
            },
            {
                "name": "Will",
                "mod": "+15"
            }
        ],
        "resistances": "poison 5",
        "HP": "115",
        "defensiveAbilities": [
            {
                "name": "Powerful Stench",
                "actionCost": "passive",
                "actionText": "(<a style=\"text-decoration:underline\" href=\"https://2e.aonprd.com/Traits.aspx?ID=206\">aura</a>, <a style=\"text-decoration:underline\" href=\"https://2e.aonprd.com/Traits.aspx?ID=246\">olfactory</a>) 30 feet. A creature that enters the area must attempt a DC 24 Fortitude save. On a failure, the creature is <a style=\"text-decoration:underline\" href=\"https://2e.aonprd.com/Conditions.aspx?ID=34\">sickened</a> 2, and on a critical failure, the creature is also <a style=\"text-decoration:underline\" href=\"https://2e.aonprd.com/Conditions.aspx?ID=35\">slowed</a> 1 for as long as it is <a style=\"text-decoration:underline\" href=\"https://2e.aonprd.com/Conditions.aspx?ID=34\">sickened</a>. While within the <a style=\"text-decoration:underline\" href=\"https://2e.aonprd.com/Traits.aspx?ID=206\">aura</a>, the creature takes a –2 circumstance penalty to saves to recover from the <a style=\"text-decoration:underline\" href=\"https://2e.aonprd.com/Conditions.aspx?ID=34\">sickened</a> condition. A creature that succeeds at its save is temporarily immune to all xulgaths’ stenches for 1 minute."
            }
        ],
        "speed": "25 feet",
        "attackActions": [
            {
                "name": "greatpick",
                "actionCost": 1,
                "modifier": "+16",
                "traits": [
                    "fatal d12"
                ],
                "damageRolls": [
                    "1d12+5 piercing"
                ],
                "attackEffects": [
                    "Concentrated Xulgath Bile"
                ]
            },
            {
                "name": "jaws",
                "actionCost": 1,
                "modifier": "+16",
                "damageRolls": [
                    "2d6+5 piercing"
                ]
            },
            {
                "name": "claw",
                "actionCost": 1,
                "modifier": "+16",
                "traits": [
                    "agile",
                    "finesse"
                ],
                "damageRolls": [
                    "2d4+5 slashing"
                ]
            },
            {
                "name": "acid flask",
                "actionCost": 1,
                "modifier": "+17",
                "traits": [
                    "range increment 20 feet",
                    "splash"
                ],
                "damageRolls": [
					"5 acid",
					"4 acid splash"
				],
                "attackEffects": [
                    "2d6+2 persistent acid"
                ]
            },
			{
                "name": "alchemist's fire",
                "actionCost": 1,
                "modifier": "+17",
                "traits": [
                    "range increment 20 feet",
                    "splash"
                ],
                "damageRolls": [
					"2d8+2 fire",
					"4 fire splash"
				],
                "attackEffects": [
                    "4 persistent fire"
                ]
            }
        ],
        "offensiveAbilities": [
            {
                "name": "Concentrated Xulgath Bile",
                "actionCost": "passive",
                "actionText": "(<a style=\"text-decoration:underline\" href=\"https://2e.aonprd.com/Traits.aspx?ID=126\">poison</a>) The <a style=\"text-decoration:underline\" href=\"https://2e.aonprd.com/Conditions.aspx?ID=34\">sickened</a> condition from concentrated xulgath bile doesn’t improve on its own until the target recovers from the poison. A target who recovers from concentrated xulgath bile is immune to being <a style=\"text-decoration:underline\" href=\"https://2e.aonprd.com/Conditions.aspx?ID=34\">sickened</a> by this poison for 1 minute<br><b>Saving Throw</b> Fortitude DC 22<br><b>Maximum Duration</b> 6 rounds<br> <b>Stage 1</b> 1d10 poison damage and <a style=\"text-decoration:underline\" href=\"https://2e.aonprd.com/Conditions.aspx?ID=34\">sickened</a> 1 (1 round)<br><b>Stage 2</b> 2d10 poison damage and <a style=\"text-decoration:underline\" href=\"https://2e.aonprd.com/Conditions.aspx?ID=34\">sickened</a> 2 (1 round)<br><b>Stage 3</b> 2d10 poison damage and <a style=\"text-decoration:underline\" href=\"https://2e.aonprd.com/Conditions.aspx?ID=34\">sickened</a> 3 (1 round)."
            },
            {
                "name": "Quick Bomber",
                "actionCost": 1,
                "actionText": "The bomber Interacts to draw a bomb, then Strikes with it."
            }
        ]
    },
    {
        "name": "Xulgath Herd-tender",
        "relativeURL": "_",
        "familyName": "Xulgath",
        "level": "8",
        "alignment": "Chaotic Evil",
        "creatureType": "Humanoid",
        "size": "Medium",
        "nethysUrl": "_",
        "recallKnowledgeText": "Recall Knowledge (humanoid) Society DC 24",
        "flavorText": "_",
        "rarity": "common",
        "traits": [
            {
                "traitName": "Humanoid",
                "traitSummary": "Humanoid creatures reason and act much like humans. They typically stand upright and have two arms and two legs.",
                "traitURL": "https://2e.aonprd.com/Traits.aspx?ID=91"
            },
            {
                "traitName": "Xulgath",
                "traitSummary": "These subterranean reptilian creatures tend to have darkvision and smell awful.",
                "traitURL": "https://2e.aonprd.com/Traits.aspx?ID=244"
            }
        ],
        "sourceDoc": "Pathfinder #154: Siege of the Dinosaurs pg. 10",
        "perceptionMod": "+17",
        "perceptionText": "darkvision",
        "languagesList": "draconic, undercommon",
        "skills": [
            {
                "name": "Acrobatics",
                "mod": "+16"
            },
            {
                "name": "Athletics",
                "mod": "+18"
            },
            {
                "name": "Lore: Dinosaur",
                "mod": "+11"
            },
            {
                "name": "Initmidation",
                "mod": "+16"
            },
            {
                "name": "Nature",
                "mod": "+17"
            },
            {
                "name": "Stealth",
                "mod": "+16"
            },
            {
                "name": "Survival",
                "mod": "+17"
            }
        ],
        "attributes": {
            "str": "+4",
            "dex": "+4",
            "con": "+2",
            "int": "-1",
            "wis": "+3",
            "cha": "+2"
        },
        "items": [
            {
                "name": "moderate alchemist's fire",
                "itemDetails": "(4)"
            },
            {
                "name": "+1 striking composite shortbow"
            },
            {
                "name": "arrow",
                "itemDetails": "(20)"
            },
            {
                "name": "whip"
            }
        ],
        "AC": "27",
        "saves": [
            {
                "name": "Fort",
                "mod": "+18"
            },
            {
                "name": "Ref",
                "mod": "+16"
            },
            {
                "name": "Will",
                "mod": "+14"
            }
        ],
        "HP": "135",
        "defensiveAbilities": [
            {
                "name": "Mounted Defense",
                "actionCost": "reaction",
                "actionText": "<b>Prerequisite</b> The herd-tender is mounted<br><b>Trigger</b> The herd-tender is targeted with a melee or ranged attack by an attacker they can see<br><b>Effect</b> The herd-tender gains a +2 circumstance bonus to AC against the triggering attack."
            },
            {
                "name": "Powerful Stench",
                "actionCost": "passive",
                "actionText": "(<a style=\"text-decoration:underline\" href=\"https://2e.aonprd.com/Traits.aspx?ID=206\">aura</a>, <a style=\"text-decoration:underline\" href=\"https://2e.aonprd.com/Traits.aspx?ID=246\">olfactory</a>) 30 feet. A creature that enters the area must attempt a DC 26 Fortitude save. On a failure, the creature is <a style=\"text-decoration:underline\" href=\"https://2e.aonprd.com/Conditions.aspx?ID=34\">sickened</a> 2, and on a critical failure, the creature is also <a style=\"text-decoration:underline\" href=\"https://2e.aonprd.com/Conditions.aspx?ID=35\">slowed</a> 1 for as long as it is <a style=\"text-decoration:underline\" href=\"https://2e.aonprd.com/Conditions.aspx?ID=34\">sickened</a>. While within the <a style=\"text-decoration:underline\" href=\"https://2e.aonprd.com/Traits.aspx?ID=206\">aura</a>, the creature takes a –2 circumstance penalty to saves to recover from the <a style=\"text-decoration:underline\" href=\"https://2e.aonprd.com/Conditions.aspx?ID=34\">sickened</a> condition. A creature that succeeds at its save is temporarily immune to all xulgaths’ stenches for 1 minute."
            }
        ],
        "speed": "25 feet",
        "attackActions": [
            {
                "name": "whip",
                "actionCost": 1,
                "modifier": "+19",
                "traits": [
                    "disarm",
                    "finesse",
                    "nonlethal",
                    "reach 10 feet",
                    "trip"
                ],
                "damageRolls": [
                    "1d4+10 slashing"
                ]
            },
            {
                "name": "jaws",
                "actionCost": 1,
                "modifier": "+19",
                "damageRolls": [
                    "2d8+10 piercing"
                ]
            },
            {
                "name": "claw",
                "actionCost": 1,
                "modifier": "+19",
                "traits": [
                    "agile"
                ],
                "damageRolls": [
                    "2d6+10 slashing"
                ]
            },
            {
                "name": "composite shortbow",
                "actionCost": 1,
                "modifier": "+20",
                "traits": [
                    "deadly 2d10",
                    "magical",
                    "propulsive",
                    "range increment 60 feet",
                    "reload 0"
                ],
                "damageRolls": [
                    "2d6+10 piercing"
                ]
            },
            {
                "name": "alchemist's fire",
                "actionCost": 1,
                "modifier": "+20",
                "traits": [
                    "range increment 20 feet",
                    "splash"
                ],
                "damageRolls": [
                    "2d8 fire",
					"2 fire splash"
                ],
                "attackEffects": [
                    "2 persistent fire"
                ]
            }
        ],
        "offensiveAbilities": [
            {
                "name": "Mounted Superiority",
                "actionCost": "passive",
                "actionText": "A mounted xulgath’s Strikes deal an additional 1d8 damage to creatures that aren’t mounted."
            },
            {
                "name": "Feral Directive",
                "actionCost": 2,
                "actionText": "The xulgath attempts to Command an Animal on their mount, but instead of demanding a specific action such as Stride or Strike, the xulgath gives a general directive, such as to return to camp or to attack a small group the mount can see. The mount and the xulgath each retain 3 actions on their turns, but the mount doesn’t change its general tactics until the xulgath uses Feral Directive or Command an Animal again."
            }
        ]
    },
    {
        "name": "Xulgath Roughrider",
        "relativeURL": "_",
        "familyName": "Xulgath",
        "level": "11",
        "alignment": "Chaotic Evil",
        "creatureType": "Humanoid",
        "size": "Medium",
        "nethysUrl": "_",
        "recallKnowledgeText": "Recall Knowledge (humanoid) Society DC 28",
        "flavorText": "_",
        "rarity": "common",
        "traits": [
            {
                "traitName": "Humanoid",
                "traitSummary": "Humanoid creatures reason and act much like humans. They typically stand upright and have two arms and two legs.",
                "traitURL": "https://2e.aonprd.com/Traits.aspx?ID=91"
            },
            {
                "traitName": "Xulgath",
                "traitSummary": "These subterranean reptilian creatures tend to have darkvision and smell awful.",
                "traitURL": "https://2e.aonprd.com/Traits.aspx?ID=244"
            }
        ],
        "sourceDoc": "Pathfinder #154: Siege of the Dinosaurs pg. 23",
        "perceptionMod": "+21",
        "perceptionText": "darkvision",
        "languagesList": "draconic, undercommon",
        "skills": [
            {
                "name": "Acrobatics",
                "mod": "+21"
            },
            {
                "name": "Athletics",
                "mod": "+22"
            },
            {
                "name": "Lore: Dinosaur",
                "mod": "+16"
            },
            {
                "name": "Initmidation",
                "mod": "+18"
            },
            {
                "name": "Nature",
                "mod": "+21",
                "skillDetails": "(+23 to Command an Animal)"
            },
            {
                "name": "Survival",
                "mod": "+19"
            }
        ],
        "attributes": {
            "str": "+5",
            "dex": "+4",
            "con": "+3",
            "int": "-1",
            "wis": "+4",
            "cha": "+1"
        },
        "items": [
            {
                "name": "+1 striking halberd"
            },
            {
                "name": "javelin",
                "itemDetails": "(6)"
            },
            {
                "name": "hide armor"
            }
        ],
        "AC": "31",
        "saves": [
            {
                "name": "Fort",
                "mod": "+22"
            },
            {
                "name": "Ref",
                "mod": "+23"
            },
            {
                "name": "Will",
                "mod": "+19"
            }
        ],
        "HP": "195",
        "defensiveAbilities": [
            {
                "name": "Hasty Sacrifice",
                "actionCost": "reaction",
                "actionText": "(<a style=\"text-decoration:underline\" href=\"https://2e.aonprd.com/Traits.aspx?ID=32\">concentrate</a>, <a style=\"text-decoration:underline\" href=\"https://2e.aonprd.com/Traits.aspx?ID=114\">move</a>)<br><b>Prerequisite</b> The roughrider is mounted<br><b>Trigger</b> The roughrider is targeted with an attack from a creature they can see<br><b>Effect</b> The roughrider’s mount becomes the target of the attack instead. The roughrider must succeed at a DC 5 flat check or they fall off their mount and land <a style=\"text-decoration:underline\" href=\"https://2e.aonprd.com/Conditions.aspx?ID=31\">prone</a>. If the check is a critical failure, the roughrider also takes 1d6 bludgeoning damage in addition to the normal damage from the fall."
            },
            {
                "name": "Powerful Stench",
                "actionCost": "passive",
                "actionText": "(<a style=\"text-decoration:underline\" href=\"https://2e.aonprd.com/Traits.aspx?ID=206\">aura</a>, <a style=\"text-decoration:underline\" href=\"https://2e.aonprd.com/Traits.aspx?ID=246\">olfactory</a>) 30 feet. A creature that enters the area must attempt a DC 30 Fortitude save. On a failure, the creature is <a style=\"text-decoration:underline\" href=\"https://2e.aonprd.com/Conditions.aspx?ID=34\">sickened</a> 2, and on a critical failure, the creature is also <a style=\"text-decoration:underline\" href=\"https://2e.aonprd.com/Conditions.aspx?ID=35\">slowed</a> 1 for as long as it is <a style=\"text-decoration:underline\" href=\"https://2e.aonprd.com/Conditions.aspx?ID=34\">sickened</a>. While within the <a style=\"text-decoration:underline\" href=\"https://2e.aonprd.com/Traits.aspx?ID=206\">aura</a>, the creature takes a –2 circumstance penalty to saves to recover from the <a style=\"text-decoration:underline\" href=\"https://2e.aonprd.com/Conditions.aspx?ID=34\">sickened</a> condition. A creature that succeeds at its save is temporarily immune to all xulgaths’ stenches for 1 minute."
            }
        ],
        "speed": "30 feet",
        "attackActions": [
            {
                "name": "halberd",
                "actionCost": 1,
                "modifier": "+24",
                "traits": [
                    "disarm",
                    "magical",
                    "reach",
                    "versatile S"
                ],
                "damageRolls": [
                    "2d10+11 piercing"
                ]
            },
            {
                "name": "jaws",
                "actionCost": 1,
                "modifier": "+23",
                "damageRolls": [
                    "2d8+11 piercing"
                ]
            },
            {
                "name": "claw",
                "actionCost": 1,
                "modifier": "+23",
                "traits": [
                    "agile"
                ],
                "damageRolls": [
                    "2d6+11 slashing"
                ]
            },
            {
                "name": "javelin",
                "actionCost": 1,
                "modifier": "+22",
                "traits": [
                    "thrown 30 feet"
                ],
                "damageRolls": [
                    "1d6+11 piercing"
                ]
            }
        ],
        "offensiveAbilities": [
            {
                "name": "Mounted Superiority",
                "actionCost": "passive",
                "actionText": "A mounted xulgath’s Strikes deal an additional 1d10 damage to creatures that aren’t mounted."
            },
            {
                "name": "Feral Directive",
                "actionCost": 2,
                "actionText": "The xulgath attempts to Command an Animal on their mount, but instead of demanding a specific action such as Stride or Strike, the xulgath gives a general directive, such as to return to camp or to attack a small group the mount can see. The mount and the xulgath each retain 3 actions on their turns, but the mount doesn’t change its general tactics until the xulgath uses Feral Directive or Command an Animal again."
            }
        ]
    },
    {
        "name": "Xulgath Hardscale",
        "relativeURL": "_",
        "familyName": "Xulgath",
        "level": "12",
        "alignment": "Chaotic Evil",
        "creatureType": "Humanoid",
        "size": "Medium",
        "nethysUrl": "_",
        "recallKnowledgeText": "Recall Knowledge (humanoid) Society DC 30",
        "flavorText": "_",
        "rarity": "common",
        "traits": [
            {
                "traitName": "Humanoid",
                "traitSummary": "Humanoid creatures reason and act much like humans. They typically stand upright and have two arms and two legs.",
                "traitURL": "https://2e.aonprd.com/Traits.aspx?ID=91"
            },
            {
                "traitName": "Xulgath",
                "traitSummary": "These subterranean reptilian creatures tend to have darkvision and smell awful.",
                "traitURL": "https://2e.aonprd.com/Traits.aspx?ID=244"
            }
        ],
        "sourceDoc": "Pathfinder #154: Siege of the Dinosaurs pg. 53",
        "perceptionMod": "+21",
        "perceptionText": "(+23 when using Perception for initiative); darkvision",
        "languagesList": "draconic, undercommon",
        "skills": [
            {
                "name": "Acrobatics",
                "mod": "+19"
            },
            {
                "name": "Athletics",
                "mod": "+23"
            },
            {
                "name": "Diplomacy",
                "mod": "+19"
            },
            {
                "name": "Initmidation",
                "mod": "+21"
            },
            {
                "name": "Nature",
                "mod": "+19"
            },
            {
                "name": "Stealth",
                "mod": "+19"
            },
            {
                "name": "Survival",
                "mod": "+21"
            }
        ],
        "attributes": {
            "str": "+5",
            "dex": "+3",
            "con": "+4",
            "int": "+0",
            "wis": "+3",
            "cha": "+1"
        },
        "items": [
            {
                "name": "+1 resilient breastplate"
            },
            {
                "name": "moderate elixir of life"
            },
            {
                "name": "javelin",
                "itemDetails": "(3)"
            },
            {
                "name": "necklace of bone and gems",
                "itemDetails": "worth 100gp"
            },
            {
                "name": "lesser sturdy shield",
                "itemDetails": "(Hardness 10, HP 80, BT 40)"
            },
            {
                "name": "+1 striking warhammer"
            }
        ],
        "AC": "32",
        "ACDetails": "(34 with shield raised)",
        "saves": [
            {
                "name": "Fort",
                "mod": "+25"
            },
            {
                "name": "Ref",
                "mod": "+22"
            },
            {
                "name": "Will",
                "mod": "+19"
            }
        ],
        "HP": "215",
        "defensiveAbilities": [
            {
                "name": "Hardscale Shield Stance",
                "actionCost": "passive",
                "actionText": "A hardscale always has their shield raised as if they had used the Raise a Shield action, as long as they meet that action’s requirements."
            },
            {
                "name": "Powerful Stench",
                "actionCost": "passive",
                "actionText": "(<a style=\"text-decoration:underline\" href=\"https://2e.aonprd.com/Traits.aspx?ID=206\">aura</a>, <a style=\"text-decoration:underline\" href=\"https://2e.aonprd.com/Traits.aspx?ID=246\">olfactory</a>) 30 feet. A creature that enters the area must attempt a DC 32 Fortitude save. On a failure, the creature is <a style=\"text-decoration:underline\" href=\"https://2e.aonprd.com/Conditions.aspx?ID=34\">sickened</a> 2, and on a critical failure, the creature is also <a style=\"text-decoration:underline\" href=\"https://2e.aonprd.com/Conditions.aspx?ID=35\">slowed</a> 1 for as long as it is <a style=\"text-decoration:underline\" href=\"https://2e.aonprd.com/Conditions.aspx?ID=34\">sickened</a>. While within the <a style=\"text-decoration:underline\" href=\"https://2e.aonprd.com/Traits.aspx?ID=206\">aura</a>, the creature takes a –2 circumstance penalty to saves to recover from the <a style=\"text-decoration:underline\" href=\"https://2e.aonprd.com/Conditions.aspx?ID=34\">sickened</a> condition. A creature that succeeds at its save is temporarily immune to all xulgaths’ stenches for 1 minute."
            },
            {
                "name": "Shield Warden",
                "actionCost": "passive",
                "actionText": "If the hardscale has their shield raised, they can Shield Block when an attack is made against an adjacent ally. If they do, the shield prevents that ally from taking damage instead of the hardscale."
            },
            {
                "name": "Aggressive Block",
                "actionCost": "freeAction",
                "actionText": "<b>Trigger</b> The hardscale uses the Shield Block reaction, and the opponent that triggered Shield Block is adjacent to the hardscale and is not more than one size larger than it<br><b>Effect</b> The hardscale makes an Athletics check to shove the opponent. This shove doesn’t increase the hardscale’s multiple attack penalty. If they roll a critical failure, they get a failure instead. If they roll a success, they get a critical success instead."
            }
        ],
        "speed": "25 feet",
        "attackActions": [
            {
                "name": "warhammer",
                "actionCost": 1,
                "modifier": "+24",
                "traits": [
                    "deadly 2d8",
                    "magical",
                    "shove"
                ],
                "damageRolls": [
                    "3d8+11 piercing"
                ]
            },
            {
                "name": "jaws",
                "actionCost": 1,
                "modifier": "+23",
                "damageRolls": [
                    "3d6+11 piercing"
                ]
            },
            {
                "name": "claw",
                "actionCost": 1,
                "modifier": "+23",
                "traits": [
                    "agile"
                ],
                "damageRolls": [
                    "3d4+11 slashing"
                ]
            },
            {
                "name": "javelin",
                "actionCost": 1,
                "modifier": "+21",
                "traits": [
                    "thrown 20 feet"
                ],
                "damageRolls": [
                    "1d6+11 piercing"
                ]
            }
        ],
        "offensiveAbilities": [
            {
                "name": "Hammer Mastery",
                "actionCost": "passive",
                "actionText": "The hardscale deals an extra 1d8 damage with weapons with the shove trait, and weapons with the shove trait gain the deadly 2d8 trait when the hardscale uses them (both the extra weapon damage die and the deadly trait have already been included in the hardscale’s warhammer Strike above)."
            }
        ]
    },
    {
        "name": "Xulgath Gutrager",
        "relativeURL": "_",
        "familyName": "Xulgath",
        "level": "10",
        "alignment": "Chaotic Evil",
        "creatureType": "Humanoid",
        "size": "Medium",
        "nethysUrl": "_",
        "recallKnowledgeText": "Recall Knowledge (humanoid) Society DC 27",
        "flavorText": "_",
        "rarity": "common",
        "traits": [
            {
                "traitName": "Humanoid",
                "traitSummary": "Humanoid creatures reason and act much like humans. They typically stand upright and have two arms and two legs.",
                "traitURL": "https://2e.aonprd.com/Traits.aspx?ID=91"
            },
            {
                "traitName": "Xulgath",
                "traitSummary": "These subterranean reptilian creatures tend to have darkvision and smell awful.",
                "traitURL": "https://2e.aonprd.com/Traits.aspx?ID=244"
            }
        ],
        "sourceDoc": "Pathfinder #154: Siege of the Dinosaurs pg. 85",
        "perceptionMod": "+19",
        "perceptionText": "darkvision",
        "languagesList": "draconic, undercommon",
        "skills": [
            {
                "name": "Acrobatics",
                "mod": "+22"
            },
            {
                "name": "Athletics",
                "mod": "+22"
            },
            {
                "name": "Stealth",
                "mod": "+20"
            }
        ],
        "attributes": {
            "str": "+4",
            "dex": "+6",
            "con": "+7",
            "int": "-2",
            "wis": "+1",
            "cha": "-1"
        },
        "AC": "28",
        "saves": [
            {
                "name": "Fort",
                "mod": "+23"
            },
            {
                "name": "Ref",
                "mod": "+22"
            },
            {
                "name": "Will",
                "mod": "+17"
            }
        ],
        "HP": "190",
        "defensiveAbilities": [
            {
                "name": "Caustic Fog",
                "actionCost": "passive",
                "actionText": "(<a style=\"text-decoration:underline\" href=\"https://2e.aonprd.com/Traits.aspx?ID=3\">acid</a>, <a style=\"text-decoration:underline\" href=\"https://2e.aonprd.com/Traits.aspx?ID=206\">aura</a>) 10 feet. Whenever a gutrager is within another xulgath’s stench <a style=\"text-decoration:underline\" href=\"https://2e.aonprd.com/Traits.aspx?ID=206\">aura</a>, a fog appears around the gutrager; creatures in the fog (including the gutrager) can see as normal, but they are concealed from creatures outside the fog. Non-xulgaths that begin their turn in the fog take 2d6 <a style=\"text-decoration:underline\" href=\"https://2e.aonprd.com/Traits.aspx?ID=3\">acid</a> damage. Strong winds suppress this ability."
            },
            {
                "name": "Self-Detonate",
                "actionCost": 2,
                "actionText": "(<a style=\"text-decoration:underline\" href=\"https://2e.aonprd.com/Traits.aspx?ID=3\">acid</a>)<br><b>Requirements</b> The gutrager has 45 or fewer HP<br><b>Effect</b> The gutrager compresses its gut and explodes in a burst of viscera, dying instantly and dealing 8d8 <a style=\"text-decoration:underline\" href=\"https://2e.aonprd.com/Traits.aspx?ID=3\">acid</a> damage to creatures and unattended objects in a 20-foot emanation centered on the gutrager (DC 31 basic Reflex save)."
            }
        ],
        "speed": "40 feet",
        "attackActions": [
            {
                "name": "jaws",
                "actionCost": 1,
                "modifier": "+21",
                "damageRolls": [
                    "2d6+8 piercing",
                    "2d6 acid"
                ]
            },
            {
                "name": "claw",
                "actionCost": 1,
                "modifier": "+23",
                "traits": [
                    "agile",
                    "finesse"
                ],
                "damageRolls": [
                    "2d8+8 slashing"
                ]
            },
            {
                "name": "bile jet",
                "actionCost": 2,
                "modifier": "+23",
                "traits": [
                    "acid",
                    "range increment 60 feet"
                ],
                "damageRolls": [
                    "4d8+7 acid"
                ]
            }
        ],
        "offensiveAbilities": [
            {
                "name": "Corrosive Kiss",
                "actionCost": 2,
                "actionText": "(<a style=\"text-decoration:underline\" href=\"https://2e.aonprd.com/Traits.aspx?ID=3\">acid</a>)<br><b>Frequency</b> once per round<br><b>Effect</b> The gutrager propels its esophagus out of its body to deliver an acidic blow. It makes an unarmed Strike against a creature or unattended object within 30 feet. On a critical hit, the target also takes 2d6 persistent <a style=\"text-decoration:underline\" href=\"https://2e.aonprd.com/Traits.aspx?ID=3\">acid</a> damage. The gutrager is clumsy 1 for 1 round as it re-coils its esophagus.",
                "modifier": "+23",
                "damageRolls": [
                    "2d6+8 bludgeoning",
                    "4d6 acid"
                ]
            }
        ]
    },
    {
        "name": "Xulgath Spinesnapper",
        "relativeURL": "_",
        "familyName": "Xulgath",
        "level": "5",
        "alignment": "Chaotic Evil",
        "creatureType": "Humanoid",
        "size": "Medium",
        "nethysUrl": "_",
        "recallKnowledgeText": "Recall Knowledge (humanoid) Society DC 20",
        "flavorText": "_",
        "rarity": "common",
        "traits": [
            {
                "traitName": "Humanoid",
                "traitSummary": "Humanoid creatures reason and act much like humans. They typically stand upright and have two arms and two legs.",
                "traitURL": "https://2e.aonprd.com/Traits.aspx?ID=91"
            },
            {
                "traitName": "Xulgath",
                "traitSummary": "These subterranean reptilian creatures tend to have darkvision and smell awful.",
                "traitURL": "https://2e.aonprd.com/Traits.aspx?ID=244"
            }
        ],
        "sourceDoc": "Pathfinder #152: Legacy of the Lost God pg. 84",
        "perceptionMod": "+11",
        "perceptionText": "darkvision",
        "languagesList": "draconic, undercommon",
        "skills": [
            {
                "name": "Athletics",
                "mod": "+14"
            },
            {
                "name": "Initmidation",
                "mod": "+11"
            }
        ],
        "attributes": {
            "str": "+6",
            "dex": "+1",
            "con": "+4",
            "int": "+0",
            "wis": "+2",
            "cha": "+0"
        },
        "items": [
            {
                "name": "maul"
            }
        ],
        "AC": "21",
        "saves": [
            {
                "name": "Fort",
                "mod": "+15"
            },
            {
                "name": "Ref",
                "mod": "+10"
            },
            {
                "name": "Will",
                "mod": "+9"
            }
        ],
        "HP": "95",
        "defensiveAbilities": [
            {
                "name": "Stench",
                "actionCost": "passive",
                "actionText": "(<a style=\"text-decoration:underline\" href=\"https://2e.aonprd.com/Traits.aspx?ID=206\">aura</a>, <a style=\"text-decoration:underline\" href=\"https://2e.aonprd.com/Traits.aspx?ID=246\">olfactory</a>) 30 feet. A creature that enters the <a style=\"text-decoration:underline\" href=\"https://2e.aonprd.com/Traits.aspx?ID=206\">aura</a> must attempt a DC 21 Fortitude save. On a failure, the creature is <a style=\"text-decoration:underline\" href=\"https://2e.aonprd.com/Conditions.aspx?ID=34\">sickened</a> 1, and on a critical failure, the creature also takes a –5-foot status penalty to its Speeds for 1 round.<br>While within the <a style=\"text-decoration:underline\" href=\"https://2e.aonprd.com/Traits.aspx?ID=206\">aura</a>, the creature takes a –2 circumstance penalty to saves to recover from the <a style=\"text-decoration:underline\" href=\"https://2e.aonprd.com/Conditions.aspx?ID=34\">sickened</a> condition. A creature that succeeds at its save is temporarily immune to all xulgaths’ stench for 1 minute."
            }
        ],
        "speed": "25 feet",
        "attackActions": [
            {
                "name": "maul",
                "actionCost": 1,
                "modifier": "+15",
                "traits": [
                    "shove"
                ],
                "damageRolls": [
                    "1d12+10 bludgeoning"
                ]
            },
            {
                "name": "jaws",
                "actionCost": 1,
                "modifier": "+15",
                "damageRolls": [
                    "2d8+8 piercing"
                ]
            },
            {
                "name": "claw",
                "actionCost": 1,
                "modifier": "+15",
                "traits": [
                    "agile"
                ],
                "damageRolls": [
                    "2d4+8 slashing"
                ],
                "attackEffects": [
                    "Grab"
                ]
            }
        ],
        "offensiveAbilities": [
            {
                "name": "Brutal Blow",
                "actionCost": 2,
                "actionText": "The spinesnapper makes a claw or weapon Strike. If it hits, in addition to dealing damage, the creature must attempt a DC 22 Fortitude saving throw, with the following effects.<br><b>Critical Success</b> The creature is unaffected and the spinesnapper is flat-footed until the start of its next turn.<br><b>Success</b> The creature is unaffected.<br><b>Failure</b> The creature is pushed 10 feet.<br><b>Critical Failure</b> The target is pushed 10 feet and knocked <a style=\"text-decoration:underline\" href=\"https://2e.aonprd.com/Conditions.aspx?ID=31\">prone</a>."
            },
            {
                "name": "Choke Slam",
                "actionCost": 1,
                "actionText": "<b>Frequency</b> once per round<br><b>Requirements</b> The spinesnapper has a creature grabbed or restrained<br><b>Effect</b> The spinesnapper slams the creature against a nearby surface. The target and the surface struck each take 4d6 bludgeoning damage, and the target must succeed at a DC 22 Fortitude save or become <a style=\"text-decoration:underline\" href=\"https://2e.aonprd.com/Conditions.aspx?ID=35\">slowed</a> 1 for 1 round, or stunned for 1 round on a critical failure."
            }
        ]
    },
    {
        "name": "Xulgath Bilebearer",
        "relativeURL": "_",
        "familyName": "Xulgath",
        "level": "2",
        "alignment": "Chaotic Evil",
        "creatureType": "Humanoid",
        "size": "Medium",
        "nethysUrl": "_",
        "recallKnowledgeText": "Recall Knowledge (humanoid) Society DC 16",
        "flavorText": "_",
        "rarity": "common",
        "traits": [
            {
                "traitName": "Humanoid",
                "traitSummary": "Humanoid creatures reason and act much like humans. They typically stand upright and have two arms and two legs.",
                "traitURL": "https://2e.aonprd.com/Traits.aspx?ID=91"
            },
            {
                "traitName": "Xulgath",
                "traitSummary": "These subterranean reptilian creatures tend to have darkvision and smell awful.",
                "traitURL": "https://2e.aonprd.com/Traits.aspx?ID=244"
            }
        ],
        "sourceDoc": "Pathfinder #151: The Show Must Go On pg. 87",
        "perceptionMod": "+6",
        "perceptionText": "darkvision",
        "languagesList": "draconic, undercommon",
        "skills": [
            {
                "name": "Acrobatics",
                "mod": "+8"
            },
            {
                "name": "Athletics",
                "mod": "+6"
            },
            {
                "name": "Deception",
                "mod": "+5"
            },
            {
                "name": "Stealth",
                "mod": "+8"
            },
            {
                "name": "Thievery",
                "mod": "+8"
            }
        ],
        "attributes": {
            "str": "+2",
            "dex": "+4",
            "con": "+2",
            "int": "+1",
            "wis": "+0",
            "cha": "-1"
        },
        "items": [
            {
                "name": "dagger",
                "itemDetails": "(2)"
            }
        ],
        "AC": "18",
        "saves": [
            {
                "name": "Fort",
                "mod": "+8"
            },
            {
                "name": "Ref",
                "mod": "+10"
            },
            {
                "name": "Will",
                "mod": "+4"
            }
        ],
        "HP": "30",
        "defensiveAbilities": [
            {
                "name": "Stench",
                "actionCost": "passive",
                "actionText": "(<a style=\"text-decoration:underline\" href=\"https://2e.aonprd.com/Traits.aspx?ID=206\">aura</a>, <a style=\"text-decoration:underline\" href=\"https://2e.aonprd.com/Traits.aspx?ID=246\">olfactory</a>) 30 feet. A creature that enters the area must attempt a DC 16 Fortitude save. On a failure, the creature is <a style=\"text-decoration:underline\" href=\"https://2e.aonprd.com/Conditions.aspx?ID=34\">sickened</a> 1, and on a critical failure, the creature also takes a –5-foot status penalty to its Speeds for 1 round. While within the <a style=\"text-decoration:underline\" href=\"https://2e.aonprd.com/Traits.aspx?ID=206\">aura</a>, the creature takes a –2 circumstance penalty to saves to recover from the <a style=\"text-decoration:underline\" href=\"https://2e.aonprd.com/Conditions.aspx?ID=34\">sickened</a> condition. A creature that succeeds at its save is temporarily immune to all xulgaths’ stenches for 1 minute. A xulgath bilebearer can activate or deactivate its stench <a style=\"text-decoration:underline\" href=\"https://2e.aonprd.com/Traits.aspx?ID=206\">aura</a> as a free action."
            }
        ],
        "speed": "25 feet",
        "attackActions": [
            {
                "name": "dagger",
                "actionCost": 1,
                "modifier": "+12",
                "traits": [
                    "agile",
                    "finesse",
                    "thrown 10 feet",
                    "versatile S"
                ],
                "damageRolls": [
                    "1d4+4 piercing"
                ],
                "attackEffects": [
                    "Xulgath Bile"
                ]
            },
            {
                "name": "jaws",
                "actionCost": 1,
                "modifier": "+10",
                "damageRolls": [
                    "2d4+4 piercing"
                ],
                "attackEffects": [
                    "Xulgath Bile"
                ]
            },
            {
                "name": "claw",
                "actionCost": 1,
                "modifier": "+10",
                "traits": [
                    "agile"
                ],
                "damageRolls": [
                    "1d6+4 slashing"
                ],
                "attackEffects": [
                    "Grab"
                ]
            }
        ],
        "offensiveAbilities": [
            {
                "name": "Putrid Blast",
                "actionCost": 2,
                "actionText": "(<a style=\"text-decoration:underline\" href=\"https://2e.aonprd.com/Traits.aspx?ID=246\">olfactory</a>, <a style=\"text-decoration:underline\" href=\"https://2e.aonprd.com/Traits.aspx?ID=126\">poison</a>)<br><b>Frequency</b> once per minute<br><b>Effect</b> All adjacent creatures must attempt a DC 18 Fortitude save. On a failure, the creature is <a style=\"text-decoration:underline\" href=\"https://2e.aonprd.com/Conditions.aspx?ID=35\">slowed</a> 1 (<a style=\"text-decoration:underline\" href=\"https://2e.aonprd.com/Conditions.aspx?ID=35\">slowed</a> 2 on a critical failure) until the end of its next turn and takes a –2 circumstance penalty to Fortitude saves against xulgath bile for 1 minute."
            },
            {
                "name": "Xulgath Bile",
                "actionCost": "passive",
                "actionText": "(<a style=\"text-decoration:underline\" href=\"https://2e.aonprd.com/Traits.aspx?ID=126\">poison</a>)<br><b>Saving Throw</b> Fortitude DC 16<br><b>Maximum Duration</b> 1 hour<br><b>Stage 1</b> fatigued (1 minute)<br><b>Stage 2</b> fatigued and unconscious (1 minute)."
            }
        ]
    },
    {
        "name": "Xulgath Stoneliege",
        "relativeURL": "_",
        "familyName": "Xulgath",
        "level": "8",
        "alignment": "Chaotic Evil",
        "creatureType": "Humanoid",
        "size": "Medium",
        "nethysUrl": "_",
        "recallKnowledgeText": "Recall Knowledge (humanoid) Society DC 26",
        "flavorText": "_",
        "rarity": "uncommon",
        "traits": [
            {
                "traitName": "Humanoid",
                "traitSummary": "Humanoid creatures reason and act much like humans. They typically stand upright and have two arms and two legs.",
                "traitURL": "https://2e.aonprd.com/Traits.aspx?ID=91"
            },
            {
                "traitName": "Xulgath",
                "traitSummary": "These subterranean reptilian creatures tend to have darkvision and smell awful.",
                "traitURL": "https://2e.aonprd.com/Traits.aspx?ID=244"
            }
        ],
        "sourceDoc": "Pathfinder #153: Life's Long Shadow pg. 84",
        "perceptionMod": "+14",
        "perceptionText": "darkvision, tremorsense (imprecise) 30 feet",
        "languagesList": "draconic, undercommon",
        "skills": [
            {
                "name": "Athletics",
                "mod": "+19"
            },
            {
                "name": "Cave Lore",
                "mod": "+15"
            },
            {
                "name": "Geology Lore",
                "mod": "+15"
            },
            {
                "name": "Initmidation",
                "mod": "+18"
            },
            {
                "name": "Survival",
                "mod": "+18"
            }
        ],
        "attributes": {
            "str": "+5",
            "dex": "+2",
            "con": "+6",
            "int": "+1",
            "wis": "+2",
            "cha": "+2"
        },
        "AC": "26",
        "saves": [
            {
                "name": "Fort",
                "mod": "+20"
            },
            {
                "name": "Ref",
                "mod": "+12"
            },
            {
                "name": "Will",
                "mod": "+14"
            }
        ],
        "resistances": "physical 8",
        "HP": "135",
        "defensiveAbilities": [
            {
                "name": "Stench",
                "actionCost": "passive",
                "actionText": "(<a style=\"text-decoration:underline\" href=\"https://2e.aonprd.com/Traits.aspx?ID=206\">aura</a>, <a style=\"text-decoration:underline\" href=\"https://2e.aonprd.com/Traits.aspx?ID=246\">olfactory</a>) 30 feet. A creature that enters the area must attempt a DC 24 Fortitude save. On a failure, the creature is <a style=\"text-decoration:underline\" href=\"https://2e.aonprd.com/Conditions.aspx?ID=34\">sickened</a> 1, and on a critical failure, the creature also takes a –5-foot status penalty to its Speeds for 1 round. While within the <a style=\"text-decoration:underline\" href=\"https://2e.aonprd.com/Traits.aspx?ID=206\">aura</a>, the creature takes a –2 circumstance penalty to saves to recover from the <a style=\"text-decoration:underline\" href=\"https://2e.aonprd.com/Conditions.aspx?ID=34\">sickened</a> condition. A creature that succeeds at its save is temporarily immune to all xulgaths’ stenches for 1 minute."
            }
        ],
        "speed": "20 feet, burrow 10 feet",
        "attackActions": [
            {
                "name": "digging bar",
                "actionCost": 1,
                "modifier": "+18",
                "traits": [
                    "fatal d12",
                    "forceful",
                    "versatile B"
                ],
                "damageRolls": [
                    "2d10+9 piercing"
                ]
            },
            {
                "name": "jaws",
                "actionCost": 1,
                "modifier": "+21",
                "damageRolls": [
                    "2d8+9 piercing"
                ]
            },
            {
                "name": "claw",
                "actionCost": 1,
                "modifier": "+19",
                "traits": [
                    "agile"
                ],
                "damageRolls": [
                    "2d6+9 slashing"
                ],
                "attackEffects": [
                    "Grab"
                ]
            }
        ],
        "spellAbilities": [
            {
                "name": "Primal Innate Spells",
                "DC": "26",
                "spellLevels": [
                    {
                        "spells": [
                            {
                                "spellName": "shape stone",
                                "nethysUrl": "https://2e.aonprd.com/Spells.aspx?ID=276",
                                "detailText": "(x3)"
                            }
                        ],
                        "level": "4th"
                    }
                ]
            }
        ],
        "offensiveAbilities": [
            {
                "name": "Earthen Blow",
                "actionCost": 1,
                "actionText": "(<a style=\"text-decoration:underline\" href=\"https://2e.aonprd.com/Traits.aspx?ID=55\">earth</a>, <a style=\"text-decoration:underline\" href=\"https://2e.aonprd.com/Traits.aspx?ID=157\">transmutation</a>)<br><b>Frequency</b> once per round<br><b>Effect</b> The stoneliege commands nearby earth to attack a foe. The stoneliege makes a claw Strike against a creature that is within 60 feet of the stoneliege and 10 feet of an earthen surface, such as dirt, mud, stone, or sand. The Strike originates from the surface’s square and has a reach of 10 feet. On a critical hit, the target is also knocked <a style=\"text-decoration:underline\" href=\"https://2e.aonprd.com/Conditions.aspx?ID=31\">prone</a>."
            },
            {
                "name": "Earthen Torrent",
                "actionCost": 2,
                "actionText": "(<a style=\"text-decoration:underline\" href=\"https://2e.aonprd.com/Traits.aspx?ID=55\">earth</a>, <a style=\"text-decoration:underline\" href=\"https://2e.aonprd.com/Traits.aspx?ID=157\">transmutation</a>)<br><b>Frequency</b> once per minute<br><b>Requirements</b> The stoneliege is standing on or next to at least 10 cubic feet of dirt, stone, or other earthen material<br><b>Effect</b> The stoneliege creates a violent wave of roiling earth. Creatures in a 15-foot cone take 7d8 bludgeoning damage (DC 26 basic Reflex save; on a critical failure, creatures are also knocked <a style=\"text-decoration:underline\" href=\"https://2e.aonprd.com/Conditions.aspx?ID=31\">prone</a>)."
            },
            {
                "name": "Stone Throes",
                "actionCost": 1,
                "actionText": "(<a style=\"text-decoration:underline\" href=\"https://2e.aonprd.com/Traits.aspx?ID=55\">earth</a>, <a style=\"text-decoration:underline\" href=\"https://2e.aonprd.com/Traits.aspx?ID=157\">transmutation</a>) The stoneliege turns their own body into solid stone like a statue and immediately becomes petrified. Any creature grappled or restrained by the stoneliege becomes immobilized; to get free, the creature must damage the statue enough to break it or succeed at a DC 28 Acrobatics check to Escape."
            }
        ]
    }
]